<?xml version="1.0" encoding="UTF-8" standalone="no"?>
<!-- Created with Inkscape (http://www.inkscape.org/) -->

<svg
   xmlns:dc="http://purl.org/dc/elements/1.1/"
   xmlns:cc="http://creativecommons.org/ns#"
   xmlns:rdf="http://www.w3.org/1999/02/22-rdf-syntax-ns#"
   xmlns:svg="http://www.w3.org/2000/svg"
   xmlns="http://www.w3.org/2000/svg"
   xmlns:sodipodi="http://sodipodi.sourceforge.net/DTD/sodipodi-0.dtd"
   xmlns:inkscape="http://www.inkscape.org/namespaces/inkscape"
   width="16301.188"
   height="11163.406"
   id="svg2"
   version="1.1"
   inkscape:version="0.48.2 r9819"
   sodipodi:docname="Schlafzimmer_westwand.svg">
  <defs
     id="defs4" />
  <sodipodi:namedview
     id="base"
     pagecolor="#ffffff"
     bordercolor="#666666"
     borderopacity="1.0"
     inkscape:pageopacity="0.0"
     inkscape:pageshadow="2"
     inkscape:zoom="0.044904701"
     inkscape:cx="10544.553"
     inkscape:cy="5581.7031"
     inkscape:document-units="px"
     inkscape:current-layer="layer1"
     showgrid="true"
     fit-margin-top="0"
     fit-margin-left="0"
     fit-margin-right="0"
     fit-margin-bottom="0"
     units="cm"
     inkscape:window-width="1366"
     inkscape:window-height="735"
     inkscape:window-x="0"
     inkscape:window-y="0"
     inkscape:window-maximized="1">
    <inkscape:grid
       type="xygrid"
       id="grid2987"
       empspacing="10"
       visible="true"
       enabled="true"
       snapvisiblegridlinesonly="true"
       units="cm"
       spacingx="1cm"
       spacingy="1cm" />
  </sodipodi:namedview>
  <metadata
     id="metadata7">
    <rdf:RDF>
      <cc:Work
         rdf:about="">
        <dc:format>image/svg+xml</dc:format>
        <dc:type
           rdf:resource="http://purl.org/dc/dcmitype/StillImage" />
        <dc:title></dc:title>
      </cc:Work>
    </rdf:RDF>
  </metadata>
  <g
     inkscape:label="Ebene 1"
     inkscape:groupmode="layer"
     id="layer1"
     transform="translate(23.84375,-191.37375)">
    <rect
       style="fill:#999999;fill-opacity:1;stroke:none;stroke-width:2;stroke-linecap:round;stroke-linejoin:round;stroke-miterlimit:4;stroke-opacity:1;stroke-dasharray:4, 4;stroke-dashoffset:9;opacity:1"
       id="rect2985"
       width="16299.213"
       height="11161.417"
       x="-22.857143"
       y="192.36218" />
    <text
       sodipodi:linespacing="125%"
       id="text3810"
       y="6543.9541"
       x="1091.7102"
       style="font-size:40px;font-style:normal;font-weight:normal;line-height:125%;letter-spacing:0px;word-spacing:0px;fill:#000000;fill-opacity:1;stroke:none;font-family:Sans"
       xml:space="preserve"><tspan
         y="6543.9541"
         x="1091.7102"
         id="tspan3812"
         sodipodi:role="line"></tspan></text>
    <g
       id="g3830">
      <rect
         y="370.52805"
         x="137.51875"
         height="10705.96"
         width="2318.9524"
         id="rect3000"
         style="fill:#ff7f2a;fill-opacity:1;stroke:none;stroke-width:1.91360843000000003;stroke-linecap:round;stroke-linejoin:round;stroke-miterlimit:4;stroke-opacity:1;stroke-dasharray:3.82721682999999979, 3.82721682999999979;stroke-dashoffset:8.61123785000000019;opacity:1" />
      <text
         transform="matrix(0,-1,1,0,0,0)"
         xml:space="preserve"
         style="font-size:720px;font-style:normal;font-weight:normal;line-height:125%;letter-spacing:0px;word-spacing:0px;fill:#ffffff;fill-opacity:1;stroke:none;font-family:Sans"
         x="-7811.4731"
         y="1565.413"
         id="text3814"
         sodipodi:linespacing="125%"><tspan
           sodipodi:role="line"
           id="tspan3816"
           x="-7811.4731"
           y="1565.413">Schrank</tspan></text>
    </g>
    <rect
       y="11354.78"
       x="-23.84375"
       height="708.72015"
       width="2548.9917"
       id="rect3006"
       style="fill:#4d4d4d;fill-opacity:1;stroke:none;stroke-width:3.09718560999999992;stroke-linecap:round;stroke-linejoin:round;stroke-miterlimit:4;stroke-opacity:1;stroke-dasharray:6.19437059000000012, 6.19437059000000012;stroke-dashoffset:13.93733385000000169;opacity:1" />
    <rect
       style="fill:#4d4d4d;fill-opacity:1;stroke:none;stroke-width:3.38608146000000021;stroke-linecap:round;stroke-linejoin:round;stroke-miterlimit:4;stroke-opacity:1;stroke-dasharray:6.77216221000000029, 6.77216221000000029;stroke-dashoffset:15.23736498999999966;opacity:1"
       id="rect3008"
       width="3082.6775"
       height="708.66138"
       x="13192.691"
       y="11354.78" />
    <rect
       style="fill:#4d4d4d;fill-opacity:1;stroke:none"
       id="rect3012"
       width="2834.6458"
       height="705.42517"
       x="-23.84375"
       y="-512.0625" />
    <rect
       style="fill:#4d4d4d;fill-opacity:1;stroke:none"
       id="rect3014"
       width="708.66119"
       height="12578.74"
       x="-732.50519"
       y="-515.29877" />
    <rect
       y="-515.29877"
       x="16275.369"
       height="12578.74"
       width="708.66119"
       id="rect3016"
       style="fill:#4d4d4d;fill-opacity:1;stroke:none" />
    <rect
       style="fill:#4d4d4d;fill-opacity:1;stroke:none"
       id="rect3018"
       width="10488.189"
       height="708.68256"
       x="5787.1797"
       y="-515.31989" />
    <rect
       y="11000.449"
       x="2527.3374"
       height="1062.9922"
       width="10665.354"
       id="rect3020"
       style="fill:#b3b3b3;fill-opacity:1;stroke:none;stroke-width:3.38608146000000021;stroke-linecap:round;stroke-linejoin:round;stroke-miterlimit:4;stroke-opacity:1;stroke-dasharray:6.77216221000000029, 6.77216221000000029;stroke-dashoffset:15.23736498999999966;opacity:1" />
    <rect
       y="193.36267"
       x="-23.84375"
       height="11161.418"
       width="106.29921"
       id="rect3792"
       style="fill:#cccccc;fill-opacity:1;stroke:none" />
    <rect
       style="fill:#cccccc;fill-opacity:1;stroke:none"
       id="rect3794"
       width="106.29921"
       height="11161.418"
       x="16169.07"
       y="193.36227" />
    <rect
       y="-23.84375"
       x="-11354.78"
       height="16299.213"
       width="106.29921"
       id="rect3796"
       style="fill:#cccccc;fill-opacity:1;stroke:none"
       transform="matrix(0,-1,1,0,0,0)" />
    <rect
       transform="matrix(0,-1,1,0,0,0)"
       style="fill:#cccccc;fill-opacity:1;stroke:none"
       id="rect3798"
       width="106.29921"
       height="16299.213"
       x="-299.6619"
       y="-23.84375" />
    <rect
       style="fill:#aad400;fill-opacity:1;stroke:none"
       id="rect3002"
       width="1769.8134"
       height="602.36218"
       x="-8123.9224"
       y="-724.85876"
       transform="scale(-1,-1)" />
    <rect
       style="fill:#00aad4;fill-opacity:1;stroke:none"
       id="rect3004"
       width="2976.3779"
       height="818.76154"
       x="2810.802"
       y="-519.09967" />
    <rect
       y="193.36267"
       x="5787.1797"
       height="177.16536"
       width="496.06299"
       id="rect3800"
       style="fill:#ff0000;fill-opacity:1;stroke:none" />
    <path
       sodipodi:type="arc"
       style="fill:#ff0000;fill-opacity:1;stroke:none"
       id="path3804"
       sodipodi:cx="3543.3071"
       sodipodi:cy="1596.4772"
       sodipodi:rx="708.66144"
       sodipodi:ry="708.66144"
       d="m 4251.9686,1596.4772 a 708.66144,708.66144 0 0 1 -570.808,695.124 l -137.8535,-695.124 z"
       transform="matrix(4.1999999,0,0,4.1999999,-12071.088,-6334.6759)"
       sodipodi:start="0"
       sodipodi:end="1.3750215" />
    <rect
       y="193.36267"
       x="2704.5027"
       height="106.29918"
       width="3188.9766"
       id="rect3806"
       style="fill:#00aad4;fill-opacity:1;stroke:none" />
    <rect
       style="fill:#00aad4;fill-opacity:1;stroke:none"
       id="rect3808"
       width="3188.9766"
       height="106.29918"
       x="2704.5022"
       y="-621.59796" />
    <g
       id="g3825"
       transform="translate(-142.68374,3719.5217)">
      <rect
         style="fill:#008000;fill-opacity:1;stroke:none"
         id="rect2989"
         width="8006.9229"
         height="5136.8442"
         x="8268.4463"
         y="194.31345" />
      <text
         sodipodi:linespacing="125%"
         id="text2991"
         y="4622.4961"
         x="8977.1074"
         style="font-size:40px;font-style:normal;font-weight:normal;line-height:125%;letter-spacing:0px;word-spacing:0px;fill:#ffffff;fill-opacity:1;stroke:none;font-family:Sans"
         xml:space="preserve"><tspan
           style="font-size:720px;fill:#ffffff;stroke:none"
           y="4622.4961"
           x="8977.1074"
           id="tspan2993"
           sodipodi:role="line">Bett</tspan></text>
    </g>
    <g
       id="g3841"
       transform="matrix(-1,0,0,-1,30061.904,11016.647)">
      <rect
         y="7102.8115"
         x="14140.866"
         height="3541.1953"
         width="2134.5024"
         id="rect3010"
         style="fill:#2c5aa0;fill-opacity:1;stroke:none" />
      <text
         transform="matrix(0,-1,1,0,0,0)"
         sodipodi:linespacing="125%"
         id="text3835"
         y="14858.046"
         x="-10291.788"
         style="font-size:720px;font-style:normal;font-weight:normal;line-height:125%;letter-spacing:0px;word-spacing:0px;fill:#ffffff;fill-opacity:1;stroke:none;font-family:Sans"
         xml:space="preserve"><tspan
           y="14858.046"
           x="-10291.788"
           id="tspan3837"
           sodipodi:role="line">Kleider-</tspan><tspan
           id="tspan3839"
           y="15758.046"
           x="-10291.788"
           sodipodi:role="line">schrank</tspan></text>
    </g>
    <g
       id="g3853"
       transform="matrix(0,1,-1,0,20189.204,-4920.589)">
      <rect
         y="5508.3232"
         x="14149.385"
         height="1240.1575"
         width="1948.8188"
         id="rect3847"
         style="fill:#a02c89;fill-opacity:1;stroke:none" />
      <text
         sodipodi:linespacing="125%"
         id="text3849"
         y="6396.8198"
         x="14220.981"
         style="font-size:720px;font-style:normal;font-weight:normal;line-height:125%;letter-spacing:0px;word-spacing:0px;fill:#ffffff;fill-opacity:1;stroke:none;font-family:Sans"
         xml:space="preserve"><tspan
           y="6396.8198"
           x="14220.981"
           id="tspan3851"
           sodipodi:role="line">Kiste</tspan></text>
    </g>
    <g
       id="g3878"
       transform="translate(3897.6378,2834.6457)">
      <path
         transform="matrix(0.41666669,0,0,0.41666669,9838.3608,5167.9276)"
         d="m 5669.2914,5494.1147 c 0,587.0744 -475.9178,1062.9921 -1062.9921,1062.9921 -587.0743,0 -1062.992,-475.9177 -1062.992,-1062.9921 0,-587.0743 475.9177,-1062.992 1062.992,-1062.992 587.0743,0 1062.9921,475.9177 1062.9921,1062.992 z"
         sodipodi:ry="1062.9921"
         sodipodi:rx="1062.9921"
         sodipodi:cy="5494.1147"
         sodipodi:cx="4606.2993"
         id="path3860"
         style="fill:#2aa041;fill-opacity:1;stroke:none"
         sodipodi:type="arc" />
      <path
         sodipodi:type="arc"
         style="fill:#2f5929;fill-opacity:1;stroke:none"
         id="path3862"
         sodipodi:cx="4606.2993"
         sodipodi:cy="5494.1147"
         sodipodi:rx="1062.9921"
         sodipodi:ry="1062.9921"
         d="m 5669.2914,5494.1147 c 0,587.0744 -475.9178,1062.9921 -1062.9921,1062.9921 -587.0743,0 -1062.992,-475.9177 -1062.992,-1062.9921 0,-587.0743 475.9177,-1062.992 1062.992,-1062.992 587.0743,0 1062.9921,475.9177 1062.9921,1062.992 z"
         transform="matrix(0.20000001,0,0,0.20000001,9826.5499,6003.9885)" />
      <path
         transform="matrix(0.20000001,0,0,0.20000001,10039.148,6854.3822)"
         d="m 5669.2914,5494.1147 c 0,587.0744 -475.9178,1062.9921 -1062.9921,1062.9921 -587.0743,0 -1062.992,-475.9177 -1062.992,-1062.9921 0,-587.0743 475.9177,-1062.992 1062.992,-1062.992 587.0743,0 1062.9921,475.9177 1062.9921,1062.992 z"
         sodipodi:ry="1062.9921"
         sodipodi:rx="1062.9921"
         sodipodi:cy="5494.1147"
         sodipodi:cx="4606.2993"
         id="path3864"
         style="fill:#29631c;fill-opacity:1;stroke:none"
         sodipodi:type="arc" />
      <path
         sodipodi:nodetypes="cc"
         transform="translate(-23.84375,191.37375)"
         inkscape:connector-curvature="0"
         id="path3866"
         d="m 10984.252,6911.4377 c 602.362,0 -35.433,318.8977 779.528,283.4646"
         style="fill:none;stroke:#67d06d;stroke-width:70.86614227;stroke-linecap:butt;stroke-linejoin:miter;stroke-miterlimit:4;stroke-opacity:1;stroke-dasharray:none" />
      <path
         style="fill:none;stroke:#77bd76;stroke-width:70.86614227;stroke-linecap:butt;stroke-linejoin:miter;stroke-miterlimit:4;stroke-opacity:1;stroke-dasharray:none"
         d="m 11173.007,7953.2052 c 602.362,0 141.731,-318.8976 566.929,-389.7638"
         id="path3868"
         inkscape:connector-curvature="0"
         sodipodi:nodetypes="cc" />
    </g>
    <g
       id="g3893"
       transform="translate(11949.804,-2746.0629)">
      <path
         transform="matrix(1.25,0,0,1.25,-1884.08,-1890.8166)"
         d="m 8858.2677,8328.7607 c 0,782.7659 -634.5571,1417.3229 -1417.3229,1417.3229 -782.7658,0 -1417.3229,-634.557 -1417.3229,-1417.3229 0,-782.7658 634.5571,-1417.3228 1417.3229,-1417.3228 782.7658,0 1417.3229,634.557 1417.3229,1417.3228 z"
         sodipodi:ry="1417.3229"
         sodipodi:rx="1417.3229"
         sodipodi:cy="8328.7607"
         sodipodi:cx="7440.9448"
         id="path3887"
         style="fill:#653d0d;fill-opacity:1;stroke:none"
         sodipodi:type="arc" />
      <rect
         y="7722.8901"
         x="6610.9985"
         height="1594.4882"
         width="1612.2047"
         id="rect3885"
         style="fill:#b36b17;fill-opacity:1;stroke:none" />
      <text
         sodipodi:linespacing="125%"
         id="text3889"
         y="8788.5527"
         x="6411.4565"
         style="font-size:40px;font-style:normal;font-weight:normal;line-height:125%;letter-spacing:0px;word-spacing:0px;fill:#000000;fill-opacity:1;stroke:none;font-family:Sans"
         xml:space="preserve"><tspan
           style="font-size:720px;fill:#ffffff"
           y="8788.5527"
           x="6411.4565"
           id="tspan3891"
           sodipodi:role="line">Yukka</tspan></text>
    </g>
    <g
       id="g4006"
       transform="matrix(0,-1,1,0,-1811.6946,28693.141)">
      <rect
         transform="matrix(-0.00656548,-0.99997845,0.99997845,-0.00656548,0,0)"
         y="17813.469"
         x="-8657.0488"
         height="3011.811"
         width="2728.3464"
         id="rect3899"
         style="fill:#ff0000;fill-opacity:1;stroke:none" />
      <rect
         transform="matrix(-0.00296387,-0.99999561,0.99999561,-0.00296387,0,0)"
         style="fill:#ff0000;fill-opacity:1;stroke:none"
         id="rect3901"
         width="1771.6536"
         height="4712.5986"
         x="-8232.9092"
         y="17916.42" />
    </g>
  </g>
</svg>
